1469553420116894163;10926288
1469553445919086687;78134
1469553445977925285;1013
1469553446548362331;88788
1469553446563296222;144648
1469553446685549133;837
1469553448555574344;154032
1469553449348757734;76080
1469553449385456816;161280
1469553449414682768;240572
1469553449558895124;1013
1469553449938742613;87640
1469553449960204000;132464
1469553450074338652;81608
1469553450083140170;1365
1469553450131551314;485
1469553451605047379;139276
1469553455199801553;76964
1469553455263665111;82012
1469553455278997129;320388
1469553455445327450;2069
1469553456130470871;113172
1469553456999737832;70057
1469553457044638101;402760
1469553457217649463;1189
1469553457924258853;84334
1469553457947995727;85100
1469553458009756805;7173
1469553458342720173;80135
1469553458342876042;85124
1469553458399956146;2069
1469553459002646049;99292
1469553460498216882;68689
1469553460516318489;404512
1469553460717626183;6293
1469553461427727070;84428
1469553461441934984;91172
1469553461514697493;15973
1469553461543970625;12277
1469553462070056515;87272
1469553462154224207;71778
1469553462690445121;661
1469553462704692935;1013
1469553463166587613;72385
1469553463178127784;68700
1469553463230481192;4181
1469553463319114618;91961
1469553463427192251;9637
1469553463442722609;2245
1469553463964885928;67893
1469553463977658492;92128
1469553464051088446;8757
1469553464931303185;83522
1469553464961742711;94836
1469553465041302178;16677
1469553465508678967;91020
1469553465587408444;71939
1469553466163384360;21605
1469553466584433561;71049
1469553466584552558;74072
1469553466634910759;16501
1469553466843127675;89980
1469553466851565916;79528
1469553466931417274;10869
1469553466948087035;10693
1469553467174672118;72402
1469553467182848959;100520
1469553467265048198;12981
1469553467283641997;10693
1469553467483003826;68268
1469553467488903160;55380
1469553467522205074;1541
1469553467534006099;3829
1469553467855094629;78110
1469553467872303540;97336
1469553467951724488;12453
1469553468222849880;46460
1469553468381563992;84001
1469553468907341280;7349
1469553468928989845;13861
1469553469045845569;72329
1469553469114534397;11045
1469553469124690155;9461
1469553470004055759;68735
1469553470006654094;77464
1469553470057316757;2069
1469553470069172137;9461
1469553470333220540;87769
1469553470344759822;81168
1469553470422253513;2949
1469553470433924101;1013
1469553470465911464;4885
1469553470473145229;2773
1469553470752099649;71504
1469553470774931818;103200
1469553470859653186;2773
1469553470871597223;4533
1469553470910090811;69750
1469553471003118595;24597
1469553471370548119;76413
1469553471402798698;79092
1469553471456660800;10341
1469553471478632375;22133
1469553471824654770;52076
1469553471876954006;81887
1469553471891232435;6469
1469553471903825179;11925
1469553471925979546;24245
1469553471938952340;3829
1469553472553923313;72126
1469553472589416338;102468
1469553472645094327;16853
1469553473458485673;68133
1469553473458675556;80116
1469553473523321002;19141
1469553473764883789;86230
1469553473787273624;85164
1469553473859528536;14037
1469553473872306579;10341
1469553473897839252;1365
1469553474229050422;70630
1469553474233236901;108040
1469553474300272744;10165
1469553474312977090;10341
1469553474390442250;68357
1469553474458540695;23893
1469553474818631640;73692
1469553474833692849;83896
1469553474898839879;12981
1469553474910418037;3653
1469553475228574702;54752
1469553475444889660;79579
1469553475978283774;72843
1469553475984020982;485
1469553475997595136;7173
1469553476012244791;6293
1469553476023738354;11045
1469553476039659670;5941
1469553476075135920;19141
1469553476091006851;5765
1469553476643454675;83908
1469553476860902102;67853
1469553477278675877;86591
1469553477365153078;18613
1469553477393793732;10341
1469553477414322008;15093
1469553477427218148;1541
1469553477717919157;70424
1469553477721043566;112816
1469553477788380531;2773
1469553477808582992;24597
1469553477924614320;68627
1469553477937447471;65180
1469553477973742483;1893
1469553477986656739;13157
1469553477998053833;13333
1469553478010709802;661
1469553478265614755;71024
1469553478273809517;69944
1469553478339795218;27941
1469553478915104574;79222
1469553478918897819;59284
1469553478961154126;661
1469553478974881509;11397
1469553478988828688;14917
1469553479000072294;8229
1469553479476713947;69657
1469553479487063799;66252
1469553479528786231;27765
1469553479540686957;3125
1469553480227075667;74472
1469553480349966742;65663
1469553480788196893;84488
1469553481032897475;4357
1469553481047395467;9813
1469553481092781849;69309
1469553481094630855;10869
1469553481111336750;10869
1469553481124999626;23365
1469553481139943249;1365
1469553481167124685;3477
1469553481187491969;21077
1469553481429998837;71050
1469553481432091841;67916
1469553481458336822;6997
1469553481475738558;28293
1469553481746869285;67264
1469553481754925723;59168
1469553481810238492;2949
1469553481827435848;35333
1469553482505207815;78110
1469553482505337150;65224
1469553482546629147;8405
1469553482559263248;18613
1469553482578021354;6469
1469553482825822888;50828
1469553482946747592;67124
1469553483621050762;28645
1469553483922801690;68367
1469553483922910669;66040
1469553483961321218;9285
1469553483978865502;15269
1469553484207753479;83443
1469553484231110555;53156
1469553484271477948;5765
1469553484283140558;18085
1469553484295331453;9989
1469553484305182703;1189
1469553484554994740;67289
1469553484573546509;77460
1469553484620819915;23717
1469553484634927281;10693
1469553484873180975;50400
1469553486632995492;60806
1469553486788807581;567236
1469553487000992755;23893
1469553487362988918;57676
1469553487835591783;71938
1469553488019863686;79810
1469553488197549678;33573
1469553488223050164;485
1469553488247094423;22133
1469553488260927078;5765
1469553488462131893;63694
1469553488462209497;42540
1469553488495974990;29349
1469553489004797222;57436
1469553489842174487;69292
1469553489912860128;64033
1469553489913370343;16
1469553490126274940;23717
1469553490157803165;11749
1469553490173175092;5589
1469553490378126758;82451
1469553490378304920;47244
1469553490425270745;1893
1469553490442514753;9461
1469553490455654442;8757
1469553490468672458;309
1469553490668331880;66090
1469553490676280116;61776
1469553490718667443;19493
1469553491028578774;44736
1469553491250095303;70316
1469553491259163678;43784
1469553491285313675;1541
1469553491300102763;14741
1469553491464639351;80696
1469553491475545361;47408
1469553491508826735;2773
1469553491518169257;11397
1469553491531260186;16325
1469553491551391684;485
1469553491700407948;40072
1469553491779177751;64519
1469553491779974208;37784
1469553491829015290;5237
1469553491844798804;6469
1469553492278294107;50656
1469553492544777493;50200
1469553493196381097;67838
1469553493411828387;2245
1469553493424602416;11749
1469553493593648073;71718
1469553493593723246;42544
1469553493637220195;19845
1469553493812734273;83504
1469553493837505022;36816
1469553493856559551;4357
1469553493875792905;16677
1469553494068032927;66114
1469553494072722486;56224
1469553494136357512;15621
1469553494339196883;39668
1469553494677897623;68349
1469553494898865625;81416
1469553495195492162;65183
1469553495200694083;5237
1469553495230803063;8933
1469553495251554268;309
1469553495266669510;18085
1469553495316996029;9637
1469553495536634524;46928
1469553496714412542;69881
1469553496872495452;419748
1469553496888339873;203512
1469553497027181716;71072
1469553497141551425;2949
1469553497151523447;15797
1469553497163146834;1717
1469553497240470663;102059
1469553497489402458;64255
1469553497490729016;39340
1469553497523671211;309
1469553497539206846;9461
1469553497551940447;23893
1469553497568650979;837
1469553497612340387;12277
1469553497839326669;37092
1469553498066864842;67846
1469553498317053488;83374
1469553498597594957;66238
1469553498716887988;12101
1469553498759587387;2245
1469553498776316660;14565
1469553498788548874;6997
1469553498837181363;11573
1469553499052611303;50524
1469553500188319318;71396
1469553500453205016;72169
1469553500466118138;644464
1469553500674750476;81382
1469553500678836360;837
1469553500696279621;16149
1469553500723449060;7525
1469553500757473130;5413
1469553500772295243;11045
1469553500821743249;7525
1469553500833218310;18437
1469553500851849910;1893
1469553500965580849;64097
1469553501019816218;15973
1469553501218205153;44748
1469553501557186435;64515
1469553501818696408;84247
1469553502086745000;66265
1469553502171130247;10693
1469553502227695619;24069
1469553502273700873;12629
1469553502586371692;46836
1469553503665084061;72439
1469553503813357228;665268
1469553503940393305;73365
1469553504068660664;21429
1469553504099822574;11221
1469553504118211439;4357
1469553504176733961;80562
1469553504451855805;46636
1469553504518047597;65322
1469553504518168474;13157
1469553504560039746;13685
1469553504836429016;51856
1469553505040526722;62577
1469553505282247347;86409
1469553505510327604;65516
1469553505818232716;8405
1469553505855771435;661
1469553505869476858;9637
1469553505881675458;12277
1469553505969837109;6997
1469553506214428955;47104
1469553507224133446;72409
1469553507438597908;74246
1469553507509084624;681164
1469553507519893486;16
1469553507633957885;77493
1469553507808897163;23365
1469553507826906382;20725
1469553507876756346;14037
1469553507965796212;77441
1469553507994413512;6469
1469553508349858736;71868
1469553508449249751;63235
1469553508782095589;85913
1469553508912051705;64303
1469553509350496168;12629
1469553509404727371;13685
1469553509456107803;5765
1469553509864644015;57288
1469553509989779135;55964
1469553510624697011;71730
1469553510893909238;73790
1469553510953381760;14037
1469553510972915068;27237
1469553510987271267;1365
1469553511024935915;7525
1469553511071440102;77606
1469553511478768278;65495
1469553511479885025;58984
1469553511524946250;1013
1469553511542139011;9813
1469553511595284998;8933
1469553511993454873;63736
1469553512002748876;67116
1469553512059872400;4885
1469553512214491330;85919
1469553512214574419;54804
1469553512276840985;2245
1469553512293953755;6293
1469553512408866735;64012
1469553512465599178;2773
1469553512714580854;49744
1469553513796905765;79573
1469553514125083931;73333
1469553514178610997;378728
1469553514226889900;334132
1469553514448835592;74236
1469553514460056119;8757
1469553514519037749;75068
1469553514530263181;40437
1469553514544097306;2245
1469553514599927659;4533
1469553514651929456;7349
1469553515018977254;66097
1469553515019092619;67628
1469553515030991245;20
1469553515109595274;10693
1469553515457275381;62081
1469553515457351869;61608
1469553515515464251;4181
1469553515734375615;85216
1469553515735024004;53784
1469553515787206832;7173
1469553515899057697;65298
1469553515957381336;7701
1469553516190375002;47588
1469553517647470242;75318
1469553517893790775;727808
1469553518006737813;67290
1469553518204283720;19845
1469553518229715577;26533
1469553518267638797;6821
1469553518534935195;68514
1469553518535029163;58700
1469553518606647454;12101
1469553519005379699;56204
1469553521117022303;76164
1469553521357361252;738004
1469553521605071822;5589
1469553521619638472;21429
1469553521646505715;1541
1469553521965738297;52556
1469553522092198356;50888
1469553524669474517;77653
1469553525123067598;118972
1469553525148691106;622196
1469553525268984657;70296
1469553525423883454;9109
1469553525439124731;35157
1469553525463133466;2597
1469553525514877093;7349
1469553525529369668;8581
1469553525846999432;48496
1469553527050914968;73788
1469553527525193647;176232
1469553527550549828;574688
1469553527826192555;13861
1469553528187046085;50308
