1469553455165590005;112177
1469553462096810573;107966
1469553465558616152;109882
1469553469016883845;114562
1469553472516545703;115204
1469553475940603471;116775
1469553479448109956;113450
1469553482909715557;112477
1469553486585360278;93549
1469553489842049711;107956
1469553493162445645;115921
1469553496650224085;114584
1469553500154785053;121559
1469553503632929547;118312
1469553507168127587;112107
1469553510582317728;104668
1469553514073786062;115631
1469553517601366271;122621
1469553521088934806;123597
1469553524613478259;127946
