1469553847085794623;117859
1469553854885292283;113638
1469553858335478245;111062
1469553861798726021;108281
1469553865287526001;113373
1469553868819166249;110271
1469553872320885247;106823
1469553875768733208;110777
1469553879241830880;117453
1469553883816767277;136025
1469553887199260735;125025
1469553890648932485;128529
1469553894109346623;125581
1469553897571419056;127629
1469553901044975992;127590
1469553904436965532;125235
1469553907882491639;118160
1469553911306288996;120993
1469553914799431475;121478
1469553918313241644;117340
