1469553457884000524;119287
1469553461383579665;121721
1469553464891194684;122245
1469553468323963520;124154
1469553471835875728;114500
1469553475398394805;109787
1469553478867900252;114825
1469553482453708100;115923
1469553487978930211;122953
1469553491423942743;129429
1469553494855943508;126964
1469553498279974476;126972
1469553501767566677;123750
1469553505246899102;129617
1469553508746679308;126326
1469553512175007463;121717
1469553515692760647;120754
